4198 14422 276
11907 540 268
2848 11464 268
2383 7885 262
6196 7583 257
7228 5223 262
10364 11740 268
14392 9533 276
7869 2069 262
594 15327 276
13368 13151 276
5513 16850 276
19997 9362 279
4398 7684 262
19423 5310 279
3519 18287 279
16486 10187 276
7037 386 262
6604 17914 279
2356 16785 276
11034 15378 276
13965 6625 276
5389 11582 268
17273 6555 276
2369 5142 238
7372 3614 262
6065 15110 276
19121 18585 261
8496 2396 262
11872 11588 219
17444 13025 276
14455 3687 276
17801 15983 279
15775 12416 276
3413 8468 262
11726 2373 268
12738 7080 268
11943 8650 268
15411 1275 276
17369 15179 266
1261 6892 262
17276 14893 271
8403 17519 276
1871 2176 175
6345 16364 276
703 1942 182
7393 4307 262
2120 9884 262
18607 4637 279
8219 5995 262
13642 18150 279
12588 16691 276
11840 17946 279
7201 6169 262
17426 19329 279
5701 4992 236
5045 6054 236
9876 17352 276
15240 18244 279
2587 15497 276
18821 16998 279
2090 16981 276
8675 18677 279
13488 14884 271
7555 17614 276
13729 14381 258
13849 18511 279
7334 16271 276
15039 20000 279
409 7076 262
17153 9341 276
4083 17326 276
8935 16567 276
12643 16769 276
3026 10163 262
14932 8816 276
16405 12057 276
12142 18229 279
13986 4228 276
5702 1711 238
19580 5674 279
17972 5585 279
14477 12828 276
18195 17530 279
18643 2897 279
19144 4302 279
12693 6630 268
8949 7597 252
5765 4458 236
972 11186 268
2971 11442 268
17479 9310 276
10376 2154 262
15973 18097 279
2865 14800 276
8280 9413 260
19612 10777 279
19478 10502 279
4108 18594 279
2354 5975 238
1765 4924 238
15951 7841 276
1501 5625 238
1666 15325 276
1061 4520 238
14528 10332 276
8116 18676 279
1004 11611 268
6554 11837 268
12697 16045 276
13147 13063 214
18397 9150 279
1235 16672 276
18719 14971 279
10073 10019 136
17793 11843 279
18775 3533 279
8410 8017 234
1297 3001 217
18209 9239 279
16000 3565 276
465 7007 262
14918 14823 240
5769 14407 276
319 11982 268
5318 16174 276
8892 9983 260
3608 6401 262
15580 17719 279
17760 12451 279
17810 13057 279
8048 9382 260
14671 1777 276
228 7050 262
9106 18174 279
16307 19384 279
13415 6962 276
9622 19858 279
11620 13240 263
12381 8329 268
17393 15619 266
15100 5000 276
18235 7350 279
15526 12145 276
17569 17678 279
3558 7589 262
15842 4539 276
2953 17492 276
15199 8223 276
7293 840 262
6208 15053 276
3702 10865 262
17885 11758 279
4065 18860 279
11371 15901 276
724 5595 238
8743 4156 262
4978 12759 268
12258 10175 268
17047 19309 279
18449 2727 279
17870 1292 279
15921 8245 276
11874 14481 276
16087 18260 279
15937 2063 276
9921 7939 260
4144 9633 262
9172 1023 262
6611 3697 262
17341 5153 276
10378 7173 260
15314 5673 276
4690 1489 238
809 2474 209
9516 6536 260
18716 789 279
4856 2347 238
1431 11838 268
6688 14493 276
4794 456 238
17724 16535 279
15713 3465 276
16631 4073 276
8403 17314 276
12592 15531 276
18673 17348 279
5766 16804 276
3381 17938 279
2388 17880 279
9612 576 262
7704 14523 276
3990 1695 238
19144 10486 279
18180 6437 279
8642 782 262
15168 16943 266
5672 11492 268
9896 9429 242
1908 8160 262
6924 8099 257
9097 10687 260
809 4701 238
5612 7591 262
15400 10216 276
